ADM4307 Final Report
…
head(traveling_spending)

# convert the dataset into tsibble data
ts_traveling_spending <- traveling_spending %>%
  mutate(Quarter = yearquarter(REF_DATE)) %>%
  select(-c(REF_DATE, SYMBOL, TERMINATED, DECIMALS, SCALAR_FACTOR, SCALAR_ID, UOM, UOM_ID, DGUID)) %>%
  as_tsibble(index = Quarter, key=VECTOR)
print(ts_traveling_spending)

## # A tsibble: 28,471 x 8 [1Q]
## # Key:       VECTOR [2,531]
##    GEO    `Area of residence`    `Type of expenditures` VECTOR COORDINATE  VALUE
##    <chr>  <chr>                  <chr>                  <chr>  <chr>       <dbl>
##  1 Canada Total, area of reside Total expenditures     v1139 1.1.1      2.96e6
##  2 Canada Total, area of reside Total expenditures     v1139 1.1.1      5.80e6
##  3 Canada Total, area of reside Total expenditures     v1139 1.1.1      9.25e6
##  4 Canada Total, area of reside Total expenditures     v1139 1.1.1      3.95e6
##  5 Canada Total, area of reside Total expenditures     v1139 1.1.1      3.25e6
##  6 Canada Total, area of reside Total expenditures     v1139 1.1.1      6.26e6
##  7 Canada Total, area of reside Total expenditures     v1139 1.1.1      9.44e6
##  8 Canada Total, area of reside Total expenditures     v1139 1.1.1      3.88e6
##  9 Canada Total, area of reside Total expenditures     v1139 1.1.1      2.22e6
## 10 Canada Total, area of reside Total expenditures     v1139 1.1.1      1.74e5
## #  28,461 more rows
## #  2 more variables: STATUS <chr>, Quarter <qtr>
…
# STL Method decomposition

dcmp <- ts_traveling_spending %>%
  model(stl = STL(VALUE))

## Warning: 74 errors (2 unique) encountered for stl
## [67] .data contains implicit gaps in time. You should check your data and convert implicit gaps into explicit missing values using `tsibble::fill_gaps()` if required.
## [7] 

print(dcmp)

## # A mable: 2,531 x 2
## # Key:     VECTOR [2,531]
##    VECTOR          stl
##    <chr>       <model>
##  1 v1139468013   <STL>
##  2 v1139468014   <STL>
##  3 v1139468015   <STL>
##  4 v1139468016   <STL>
##  5 v1139468017   <STL>
##  6 v1139468018   <STL>
##  7 v1139468019   <STL>
##  8 v1139468020   <STL>
##  9 v1139468021   <STL>
## 10 v1139468022   <STL>
## #  2,521 more rows
…
